verify/utb/EF_TCC32_wb_tb.vcd
$date
	Wed Aug 16 12:55:26 2023
$end
$version
	Icarus Verilog
$end
$timescale
	1ns
$end
$scope module EF_TMR32_wb_tb $end
$var event 1 ! test4_done $end
$var event 1 " test3_done $end
$var event 1 # test2_done $end
$var event 1 $ test1_done $end
$var event 1 % reset_done $end
$var event 1 & power_on $end
$var event 1 ' extern_clk_start $end
$var wire 1 ( ext_clk $end
$var wire 1 ) irq $end
$var wire 32 * dat_o [31:0] $end
$var wire 1 + ack_o $end
$var reg 32 , adr_i [31:0] $end
$var reg 1 - clk_i $end
$var reg 1 ( ctr_in $end
$var reg 1 . cyc_i $end
$var reg 32 / dat_i [31:0] $end
$var reg 32 0 data_out [31:0] $end
$var reg 1 1 rst_i $end
$var reg 4 2 sel_i [3:0] $end
$var reg 1 3 stb_i $end
$var reg 1 4 we_i $end
$scope module muv $end
$var wire 32 5 COUNTER_REG [31:0] $end
$var wire 3 6 MIS_REG [2:0] $end
$var wire 32 7 TIMER_REG [31:0] $end
$var wire 1 8 _CP_FLAG_ $end
$var wire 1 9 _MATCH_FLAG_ $end
$var wire 1 : _TO_FLAG_ $end
$var wire 1 ; _clk_ $end
$var wire 1 < _rst_ $end
$var wire 32 = adr_i [31:0] $end
$var wire 1 - clk_i $end
$var wire 1 > ctr_in $end
$var wire 32 ? ctr_match [31:0] $end
$var wire 1 . cyc_i $end
$var wire 32 @ dat_i [31:0] $end
$var wire 1 ( ext_clk $end
$var wire 32 A period [31:0] $end
$var wire 1 1 rst_i $end
$var wire 4 B sel_i [3:0] $end
$var wire 1 3 stb_i $end
$var wire 4 C wb_byte_sel [3:0] $end
$var wire 1 D wb_re $end
$var wire 1 E wb_valid $end
$var wire 1 F wb_we $end
$var wire 1 4 we_i $end
$var wire 1 G up $end
$var wire 1 H to_flag $end
$var wire 1 I tmr_en $end
$var wire 32 J tmr [31:0] $end
$var wire 1 K one_shot $end
$var wire 1 L match_flag $end
$var wire 1 ) irq $end
$var wire 1 M en $end
$var wire 32 N dat_o [31:0] $end
$var wire 1 O cp_flag $end
$var wire 2 P cp_event [1:0] $end
$var wire 1 Q cp_en $end
$var wire 32 R cp_count [31:0] $end
$var wire 4 S clk_src [3:0] $end
$var reg 32 T CONTROL_REG [31:0] $end
$var reg 32 U COUNTER_MATCH_REG [31:0] $end
$var reg 3 V ICR_REG [2:0] $end
$var reg 3 W IM_REG [2:0] $end
$var reg 32 X PERIOD_REG [31:0] $end
$var reg 3 Y RIS_REG [2:0] $end
$var reg 1 + ack_o $end
$scope module inst_to_wrap $end
$var wire 1 ; clk $end
$var wire 4 Z clk_src [3:0] $end
$var wire 1 Q cp_en $end
$var wire 2 [ cp_event [1:0] $end
$var wire 1 O cp_flag $end
$var wire 1 \ cp_neg $end
$var wire 1 ] cp_pos $end
$var wire 1 ^ ctr_clk $end
$var wire 1 > ctr_in $end
$var wire 32 _ ctr_match [31:0] $end
$var wire 1 M en $end
$var wire 1 L match_flag $end
$var wire 1 K one_shot $end
$var wire 32 ` period [31:0] $end
$var wire 1 a rst_n $end
$var wire 1 I tmr_en $end
$var wire 1 G up $end
$var wire 1 H to_flag $end
$var wire 1 b tmr_clk_src $end
$var wire 1 c tmr_clk $end
$var wire 1 d ctr_mode $end
$var reg 32 e cp_count [31:0] $end
$var reg 1 f cp_counting $end
$var reg 1 g cp_counting_delayed $end
$var reg 32 h cp_ctr [31:0] $end
$var reg 1 i ctr_in_sync_delayed $end
$var reg 1 j match $end
$var reg 1 k match_delayed $end
$var reg 8 l pre [7:0] $end
$var reg 1 m stop $end
$var reg 32 n tmr [31:0] $end
$var reg 1 o tmr_clk_src_delayed $end
$upscope $end
$upscope $end
$scope task WB_M_RD_W $end
$var reg 32 p addr [31:0] $end
$var reg 32 q data [31:0] $end
$scope begin task_body $end
$upscope $end
$upscope $end
$scope task WB_M_WR_W $end
$var reg 32 r addr [31:0] $end
$var reg 32 s data [31:0] $end
$scope begin task_body $end
$upscope $end
$upscope $end
$scope task tmr_wait_to $end
$scope begin task_body $end
$var reg 32 t ris [31:0] $end
$upscope $end
$upscope $end
$upscope $end
$enddefinitions $end
#0
$dumpvars
bx t
bx s
bx r
bx q
bx p
xo
bx n
xm
bx l
xk
xj
xi
bx h
xg
xf
bx e
xd
xc
xb
xa
bx `
bx _
x^
x]
x\
bx [
bx Z
bx Y
bx X
bx W
bx V
bx U
bx T
bx S
bx R
xQ
bx P
xO
bx N
xM
xL
xK
bx J
xI
xH
xG
xF
xE
xD
bx C
bx B
bx A
bx @
bx ?
0>
bx =
x<
x;
x:
x9
x8
bx 7
bx 6
bx 5
x4
x3
bx 2
x1
bx 0
bx /
x.
x-
bx ,
x+
bx *
x)
0(
1'
1&
1%
1$
1#
1"
1!
$end
#25
bx0xxxx0x0x0xx0xx0xxxxx0xxx0xxxx *
bx0xxxx0x0x0xx0xx0xxxxx0xxx0xxxx N
0c
0b
1:
1H
09
0L
0M
0I
0Q
0d
b0 S
b0 Z
0G
0K
b0 P
b0 [
0)
b0 6
b0 l
0o
b0 7
b0 J
b0 n
0m
0f
b0 5
b0 R
b0 e
0j
0+
b0 A
b0 `
b0 X
b0 ?
b0 _
b0 U
b0 T
b0 W
b0 V
b0 Y
b0 C
0F
0D
0a
0E
0;
0-
1<
11
03
0.
1&
#40
08
0O
b0 h
0g
0k
1;
1-
#60
0;
0-
#80
0]
0^
1;
1-
#100
0;
0-
#120
0\
0i
1;
1-
#140
0;
0-
#160
1;
1-
#180
0;
0-
#200
1;
1-
#220
0;
0-
#240
1;
1-
#260
0;
0-
#280
1;
1-
#300
0;
0-
#320
1;
1-
#340
0;
0-
#360
1;
1-
#380
0;
0-
#400
1;
1-
#420
0;
0-
#440
1;
1-
#460
0;
0-
#480
1;
1-
#500
0;
0-
#520
1;
1-
#540
0;
0-
#560
1;
1-
#580
0;
0-
#600
1;
1-
#620
0;
0-
#640
1;
1-
#660
0;
0-
#680
1;
1-
#700
0;
0-
#720
1;
1-
#740
0;
0-
#760
1;
1-
#780
0;
0-
#800
1;
1-
#820
0;
0-
#840
1;
1-
#860
0;
0-
#880
1;
1-
#900
0;
0-
#920
1;
1-
#940
0;
0-
#960
1;
1-
#980
0;
0-
#1000
1;
1-
#1020
0;
0-
#1040
1a
0<
01
b10100 s
b100 r
1%
1;
1-
#1060
0;
0-
#1080
b1 Y
1;
1-
#1081
b1111 C
b0 *
b0 N
1F
1E
b1111 2
b1111 B
b10100 /
b10100 @
b100 ,
b100 =
14
13
1.
#1100
0;
0-
#1120
b10100 *
b10100 N
1+
b10100 A
b10100 `
b10100 X
1;
1-
#1140
0;
0-
#1160
b0 C
0F
0:
0H
0E
b10100 7
b10100 J
b10100 n
0+
03
0.
b111 s
b111100000000 r
1;
1-
#1180
0;
0-
#1200
1;
1-
#1201
b1111 C
1F
b0 *
b0 N
1E
b111 /
b111 @
b111100000000 ,
b111100000000 =
13
1.
#1220
0;
0-
#1240
b111 *
b111 N
b111 V
1+
1;
1-
#1260
0;
0-
#1280
b0 C
0F
0E
0+
b0 Y
03
0.
b100000000000000011 s
b10000 r
1;
1-
#1300
0;
0-
#1320
b0 *
b0 N
b0 V
1;
1-
#1321
b1111 C
1F
1E
b100000000000000011 /
b100000000000000011 @
b10000 ,
b10000 =
13
1.
#1340
0;
0-
#1360
b100000000000000011 *
b100000000000000011 N
1M
1I
1K
1+
b100000000000000011 T
1;
1-
#1380
0;
0-
#1400
1c
b0 C
0F
1b
0E
b1 l
0+
03
0.
b111100000100 p
b0 t
1;
1-
#1420
0;
0-
#1440
0c
0b
b10 l
1o
b10011 7
b10011 J
b10011 n
1;
1-
#1441
b0 *
b0 N
1D
1E
b0 /
b0 @
b111100000100 ,
b111100000100 =
04
13
1.
#1460
0;
0-
#1480
1c
1b
0o
b11 l
1+
1;
1-
#1500
0;
0-
#1520
0c
0b
b100 l
1o
b10010 7
b10010 J
b10010 n
0+
0D
0E
03
0.
b0 q
1;
1-
#1540
0;
0-
#1560
1c
1b
0o
b101 l
1;
1-
#1561
1D
1E
13
1.
#1580
0;
0-
#1600
0c
0b
b110 l
1o
b10001 7
b10001 J
b10001 n
1+
1;
1-
#1620
0;
0-
#1640
1c
1b
0o
b111 l
0+
0D
0E
03
0.
1;
1-
#1660
0;
0-
#1680
0c
0b
b1000 l
1o
b10000 7
b10000 J
b10000 n
1;
1-
#1681
1D
1E
13
1.
#1700
0;
0-
#1720
1c
1b
0o
b1001 l
1+
1;
1-
#1740
0;
0-
#1760
0c
0b
b1010 l
1o
b1111 7
b1111 J
b1111 n
0+
0D
0E
03
0.
1;
1-
#1780
0;
0-
#1800
1c
1b
0o
b1011 l
1;
1-
#1801
1D
1E
13
1.
#1820
0;
0-
#1840
0c
0b
b1100 l
1o
b1110 7
b1110 J
b1110 n
1+
1;
1-
#1860
0;
0-
#1880
1c
1b
0o
b1101 l
0+
0D
0E
03
0.
1;
1-
#1900
0;
0-
#1920
0c
0b
b1110 l
1o
b1101 7
b1101 J
b1101 n
1;
1-
#1921
1D
1E
13
1.
#1940
0;
0-
#1960
1c
1b
0o
b1111 l
1+
1;
1-
#1980
0;
0-
#2000
0c
0b
b10000 l
1o
b1100 7
b1100 J
b1100 n
0+
0D
0E
03
0.
1;
1-
#2020
0;
0-
#2040
1c
1b
0o
b10001 l
1;
1-
#2041
1D
1E
13
1.
#2060
0;
0-
#2080
0c
0b
b10010 l
1o
b1011 7
b1011 J
b1011 n
1+
1;
1-
#2100
0;
0-
#2120
1c
1b
0o
b10011 l
0+
0D
0E
03
0.
1;
1-
#2140
0;
0-
#2160
0c
0b
b10100 l
1o
b1010 7
b1010 J
b1010 n
1;
1-
#2161
1D
1E
13
1.
#2180
0;
0-
#2200
1c
1b
0o
b10101 l
1+
1;
1-
#2220
0;
0-
#2240
0c
0b
b10110 l
1o
b1001 7
b1001 J
b1001 n
0+
0D
0E
03
0.
1;
1-
#2260
0;
0-
#2280
1c
1b
0o
b10111 l
1;
1-
#2281
1D
1E
13
1.
#2300
0;
0-
#2320
0c
0b
b11000 l
1o
b1000 7
b1000 J
b1000 n
1+
1;
1-
#2340
0;
0-
#2360
1c
1b
0o
b11001 l
0+
0D
0E
03
0.
1;
1-
#2380
0;
0-
#2400
0c
0b
b11010 l
1o
b111 7
b111 J
b111 n
1;
1-
#2401
1D
1E
13
1.
#2420
0;
0-
#2440
1c
1b
0o
b11011 l
1+
1;
1-
#2460
0;
0-
#2480
0c
0b
b11100 l
1o
b110 7
b110 J
b110 n
0+
0D
0E
03
0.
1;
1-
#2500
0;
0-
#2520
1c
1b
0o
b11101 l
1;
1-
#2521
1D
1E
13
1.
#2540
0;
0-
#2560
0c
0b
b11110 l
1o
b101 7
b101 J
b101 n
1+
1;
1-
#2580
0;
0-
#2600
1c
1b
0o
b11111 l
0+
0D
0E
03
0.
1;
1-
#2620
0;
0-
#2640
0c
0b
b100000 l
1o
b100 7
b100 J
b100 n
1;
1-
#2641
1D
1E
13
1.
#2660
0;
0-
#2680
1c
1b
0o
b100001 l
1+
1;
1-
#2700
0;
0-
#2720
0c
0b
b100010 l
1o
b11 7
b11 J
b11 n
0+
0D
0E
03
0.
1;
1-
#2740
0;
0-
#2760
1c
1b
0o
b100011 l
1;
1-
#2761
1D
1E
13
1.
#2780
0;
0-
#2800
0c
0b
b100100 l
1o
b10 7
b10 J
b10 n
1+
1;
1-
#2820
0;
0-
#2840
1c
1b
0o
b100101 l
0+
0D
0E
03
0.
1;
1-
#2860
0;
0-
#2880
0c
0b
b100110 l
1o
b1 7
b1 J
b1 n
1;
1-
#2881
1D
1E
13
1.
#2900
0;
0-
#2920
1c
1b
0o
b100111 l
1+
1;
1-
#2940
0;
0-
#2960
0c
0b
1:
1H
b101000 l
1o
b0 7
b0 J
b0 n
0+
0D
0E
03
0.
1;
1-
#2980
0;
0-
#3000
b1 *
b1 N
1c
0:
0H
1b
1m
b10100 7
b10100 J
b10100 n
0o
b101001 l
b1 Y
1;
1-
#3001
1D
1E
13
1.
#3020
0;
0-
#3040
0c
0b
b101010 l
1o
1+
1;
1-
#3060
0;
0-
#3080
1c
1b
0o
b101011 l
0+
0D
0E
b1 t
03
0.
b1 q
1;
1-
#3100
0;
0-
#3120
0c
0b
b101100 l
1o
1;
1-
#3140
0;
0-
#3160
1c
1b
0o
b101101 l
1;
1-
#3180
0;
0-
#3200
0c
0b
b101110 l
1o
1;
1-
#3220
0;
0-
#3240
1c
1b
0o
b101111 l
1;
1-
#3260
0;
0-
#3280
0c
0b
b110000 l
1o
1;
1-
#3300
0;
0-
#3320
1c
1b
0o
b110001 l
1;
1-
#3340
0;
0-
#3360
0c
0b
b110010 l
1o
1;
1-
#3380
0;
0-
#3400
1c
1b
0o
b110011 l
1;
1-
#3420
0;
0-
#3440
0c
0b
b110100 l
1o
1;
1-
#3460
0;
0-
#3480
1c
1b
0o
b110101 l
1;
1-
#3500
0;
0-
#3520
0c
0b
b110110 l
1o
1;
1-
#3540
0;
0-
#3560
1c
1b
0o
b110111 l
1;
1-
#3580
0;
0-
#3600
0c
0b
b111000 l
1o
1;
1-
#3620
0;
0-
#3640
1c
1b
0o
b111001 l
1;
1-
#3660
0;
0-
#3680
0c
0b
b111010 l
1o
1;
1-
#3700
0;
0-
#3720
1c
1b
0o
b111011 l
1;
1-
#3740
0;
0-
#3760
0c
0b
b111100 l
1o
1;
1-
#3780
0;
0-
#3800
1c
1b
0o
b111101 l
1;
1-
#3820
0;
0-
#3840
0c
0b
b111110 l
1o
1;
1-
#3860
0;
0-
#3880
1c
1b
0o
b111111 l
1;
1-
#3900
0;
0-
#3920
0c
0b
b1000000 l
1o
1;
1-
#3940
0;
0-
#3960
1c
1b
0o
b1000001 l
1;
1-
#3980
0;
0-
#4000
0c
0b
b1000010 l
1o
1;
1-
#4020
0;
0-
#4040
1c
1b
0o
b1000011 l
1;
1-
#4060
0;
0-
#4080
0c
0b
b1000100 l
1o
1;
1-
b0 s
1$
#4081
b100000000000000011 *
b100000000000000011 N
b1111 C
1F
1E
b10000 ,
b10000 =
14
13
1.
#4100
0;
0-
#4120
1c
b0 *
b0 N
1b
0M
0I
0K
0o
b1000101 l
b0 T
1+
1;
1-
#4140
0;
0-
#4160
0c
b0 C
0F
0E
1o
0m
0+
03
0.
b10100 s
b100 r
1;
1-
#4180
0;
0-
#4200
1;
1-
#4201
b1111 C
1F
b10100 *
b10100 N
1E
b10100 /
b10100 @
b100 ,
b100 =
13
1.
#4220
0;
0-
#4240
1+
1;
1-
#4260
0;
0-
#4280
b0 C
0F
0E
0+
03
0.
b111 s
b111100000000 r
1;
1-
#4300
0;
0-
#4320
1;
1-
#4321
b1111 C
1F
b0 *
b0 N
1E
b111 /
b111 @
b111100000000 ,
b111100000000 =
13
1.
#4340
0;
0-
#4360
b111 *
b111 N
b111 V
1+
1;
1-
#4380
0;
0-
#4400
b0 C
0F
0E
0+
b0 Y
03
0.
b11 s
b10000 r
1;
1-
#4420
0;
0-
#4440
b0 *
b0 N
b0 V
1;
1-
#4441
b1111 C
1F
1E
b11 /
b11 @
b10000 ,
b10000 =
13
1.
#4460
0;
0-
#4480
b11 *
b11 N
1M
1I
1+
b11 T
1;
1-
#4500
0;
0-
#4520
b0 C
0F
0b
0E
b1000110 l
0+
03
0.
b0 t
1;
1-
#4540
0;
0-
#4560
1c
1b
b1000111 l
0o
1;
1-
#4561
b0 *
b0 N
1D
1E
b0 /
b0 @
b111100000100 ,
b111100000100 =
04
13
1.
#4580
0;
0-
#4600
0c
0b
b10011 7
b10011 J
b10011 n
1o
b1001000 l
1+
1;
1-
#4620
0;
0-
#4640
1c
1b
b1001001 l
0o
0+
0D
0E
03
0.
b0 q
1;
1-
#4660
0;
0-
#4680
0c
0b
b10010 7
b10010 J
b10010 n
1o
b1001010 l
1;
1-
#4681
1D
1E
13
1.
#4700
0;
0-
#4720
1c
1b
b1001011 l
0o
1+
1;
1-
#4740
0;
0-
#4760
0c
0b
b10001 7
b10001 J
b10001 n
1o
b1001100 l
0+
0D
0E
03
0.
1;
1-
#4780
0;
0-
#4800
1c
1b
b1001101 l
0o
1;
1-
#4801
1D
1E
13
1.
#4820
0;
0-
#4840
0c
0b
b10000 7
b10000 J
b10000 n
1o
b1001110 l
1+
1;
1-
#4860
0;
0-
#4880
1c
1b
b1001111 l
0o
0+
0D
0E
03
0.
1;
1-
#4900
0;
0-
#4920
0c
0b
b1111 7
b1111 J
b1111 n
1o
b1010000 l
1;
1-
#4921
1D
1E
13
1.
#4940
0;
0-
#4960
1c
1b
b1010001 l
0o
1+
1;
1-
#4980
0;
0-
#5000
0c
0b
b1110 7
b1110 J
b1110 n
1o
b1010010 l
0+
0D
0E
03
0.
1;
1-
#5020
0;
0-
#5040
1c
1b
b1010011 l
0o
1;
1-
#5041
1D
1E
13
1.
#5060
0;
0-
#5080
0c
0b
b1101 7
b1101 J
b1101 n
1o
b1010100 l
1+
1;
1-
#5100
0;
0-
#5120
1c
1b
b1010101 l
0o
0+
0D
0E
03
0.
1;
1-
#5140
0;
0-
#5160
0c
0b
b1100 7
b1100 J
b1100 n
1o
b1010110 l
1;
1-
#5161
1D
1E
13
1.
#5180
0;
0-
#5200
1c
1b
b1010111 l
0o
1+
1;
1-
#5220
0;
0-
#5240
0c
0b
b1011 7
b1011 J
b1011 n
1o
b1011000 l
0+
0D
0E
03
0.
1;
1-
#5260
0;
0-
#5280
1c
1b
b1011001 l
0o
1;
1-
#5281
1D
1E
13
1.
#5300
0;
0-
#5320
0c
0b
b1010 7
b1010 J
b1010 n
1o
b1011010 l
1+
1;
1-
#5340
0;
0-
#5360
1c
1b
b1011011 l
0o
0+
0D
0E
03
0.
1;
1-
#5380
0;
0-
#5400
0c
0b
b1001 7
b1001 J
b1001 n
1o
b1011100 l
1;
1-
#5401
1D
1E
13
1.
#5420
0;
0-
#5440
1c
1b
b1011101 l
0o
1+
1;
1-
#5460
0;
0-
#5480
0c
0b
b1000 7
b1000 J
b1000 n
1o
b1011110 l
0+
0D
0E
03
0.
1;
1-
#5500
0;
0-
#5520
1c
1b
b1011111 l
0o
1;
1-
#5521
1D
1E
13
1.
#5540
0;
0-
#5560
0c
0b
b111 7
b111 J
b111 n
1o
b1100000 l
1+
1;
1-
#5580
0;
0-
#5600
1c
1b
b1100001 l
0o
0+
0D
0E
03
0.
1;
1-
#5620
0;
0-
#5640
0c
0b
b110 7
b110 J
b110 n
1o
b1100010 l
1;
1-
#5641
1D
1E
13
1.
#5660
0;
0-
#5680
1c
1b
b1100011 l
0o
1+
1;
1-
#5700
0;
0-
#5720
0c
0b
b101 7
b101 J
b101 n
1o
b1100100 l
0+
0D
0E
03
0.
1;
1-
#5740
0;
0-
#5760
1c
1b
b1100101 l
0o
1;
1-
#5761
1D
1E
13
1.
#5780
0;
0-
#5800
0c
0b
b100 7
b100 J
b100 n
1o
b1100110 l
1+
1;
1-
#5820
0;
0-
#5840
1c
1b
b1100111 l
0o
0+
0D
0E
03
0.
1;
1-
#5860
0;
0-
#5880
0c
0b
b11 7
b11 J
b11 n
1o
b1101000 l
1;
1-
#5881
1D
1E
13
1.
#5900
0;
0-
#5920
1c
1b
b1101001 l
0o
1+
1;
1-
#5940
0;
0-
#5960
0c
0b
b10 7
b10 J
b10 n
1o
b1101010 l
0+
0D
0E
03
0.
1;
1-
#5980
0;
0-
#6000
1c
1b
b1101011 l
0o
1;
1-
#6001
1D
1E
13
1.
#6020
0;
0-
#6040
0c
0b
b1 7
b1 J
b1 n
1o
b1101100 l
1+
1;
1-
#6060
0;
0-
#6080
1c
1b
b1101101 l
0o
0+
0D
0E
03
0.
1;
1-
#6100
0;
0-
#6120
0c
1:
1H
0b
b0 7
b0 J
b0 n
1o
b1101110 l
1;
1-
#6121
1D
1E
13
1.
#6140
0;
0-
#6160
b1 *
b1 N
1c
1b
0:
0H
b1101111 l
0o
b10100 7
b10100 J
b10100 n
1+
b1 Y
1;
1-
#6180
0;
0-
#6200
0c
0b
b10011 7
b10011 J
b10011 n
1o
b1110000 l
0+
0D
0E
b0 t
03
0.
b1 q
1;
1-
#6220
0;
0-
#6240
1c
1b
b1110001 l
0o
1;
1-
#6241
1D
1E
13
1.
#6260
0;
0-
#6280
0c
0b
b10010 7
b10010 J
b10010 n
1o
b1110010 l
1+
1;
1-
#6300
0;
0-
#6320
1c
1b
b1110011 l
0o
0+
0D
0E
b0 t
03
0.
1;
1-
#6340
0;
0-
#6360
0c
0b
b10001 7
b10001 J
b10001 n
1o
b1110100 l
1;
1-
#6361
1D
1E
13
1.
#6380
0;
0-
#6400
1c
1b
b1110101 l
0o
1+
1;
1-
#6420
0;
0-
#6440
0c
0b
b10000 7
b10000 J
b10000 n
1o
b1110110 l
0+
0D
0E
b1 t
03
0.
1;
1-
#6460
0;
0-
#6480
1c
1b
b1110111 l
0o
1;
1-
#6500
0;
0-
#6520
0c
0b
b1111 7
b1111 J
b1111 n
1o
b1111000 l
1;
1-
#6540
0;
0-
#6560
1c
1b
b1111001 l
0o
1;
1-
#6580
0;
0-
#6600
0c
0b
b1110 7
b1110 J
b1110 n
1o
b1111010 l
1;
1-
#6620
0;
0-
#6640
1c
1b
b1111011 l
0o
1;
1-
#6660
0;
0-
#6680
0c
0b
b1101 7
b1101 J
b1101 n
1o
b1111100 l
1;
1-
#6700
0;
0-
#6720
1c
1b
b1111101 l
0o
1;
1-
#6740
0;
0-
#6760
0c
0b
b1100 7
b1100 J
b1100 n
1o
b1111110 l
1;
1-
#6780
0;
0-
#6800
1c
1b
b1111111 l
0o
1;
1-
#6820
0;
0-
#6840
0c
0b
b1011 7
b1011 J
b1011 n
1o
b10000000 l
1;
1-
#6860
0;
0-
#6880
1c
1b
b10000001 l
0o
1;
1-
#6900
0;
0-
#6920
0c
0b
b1010 7
b1010 J
b1010 n
1o
b10000010 l
1;
1-
#6940
0;
0-
#6960
1c
1b
b10000011 l
0o
1;
1-
#6980
0;
0-
#7000
0c
0b
b1001 7
b1001 J
b1001 n
1o
b10000100 l
1;
1-
#7020
0;
0-
#7040
1c
1b
b10000101 l
0o
1;
1-
#7060
0;
0-
#7080
0c
0b
b1000 7
b1000 J
b1000 n
1o
b10000110 l
1;
1-
#7100
0;
0-
#7120
1c
1b
b10000111 l
0o
1;
1-
#7140
0;
0-
#7160
0c
0b
b111 7
b111 J
b111 n
1o
b10001000 l
1;
1-
#7180
0;
0-
#7200
1c
1b
b10001001 l
0o
1;
1-
#7220
0;
0-
#7240
0c
0b
b110 7
b110 J
b110 n
1o
b10001010 l
1;
1-
#7260
0;
0-
#7280
1c
1b
b10001011 l
0o
1;
1-
#7300
0;
0-
#7320
0c
0b
b101 7
b101 J
b101 n
1o
b10001100 l
1;
1-
#7340
0;
0-
#7360
1c
1b
b10001101 l
0o
1;
1-
#7380
0;
0-
#7400
0c
0b
b100 7
b100 J
b100 n
1o
b10001110 l
1;
1-
#7420
0;
0-
#7440
1c
1b
b10001111 l
0o
1;
1-
b0 s
1#
#7441
b11 *
b11 N
b1111 C
1F
1E
b10000 ,
b10000 =
14
13
1.
#7460
0;
0-
#7480
0c
b0 *
b0 N
0b
0M
0I
b11 7
b11 J
b11 n
1o
b10010000 l
b0 T
1+
1;
1-
#7500
0;
0-
#7520
b0 C
0F
0E
0o
b10100 7
b10100 J
b10100 n
0+
03
0.
b10100 s
b100 r
1;
1-
#7540
0;
0-
#7560
1;
1-
#7561
b1111 C
1F
b10100 *
b10100 N
1E
b10100 /
b10100 @
b100 ,
b100 =
13
1.
#7580
0;
0-
#7600
1+
1;
1-
#7620
0;
0-
#7640
b0 C
0F
0E
0+
03
0.
b111 s
b111100000000 r
1;
1-
#7660
0;
0-
#7680
1;
1-
#7681
b1111 C
1F
b0 *
b0 N
1E
b111 /
b111 @
b111100000000 ,
b111100000000 =
13
1.
#7700
0;
0-
#7720
b111 *
b111 N
b111 V
1+
1;
1-
#7740
0;
0-
#7760
b0 C
0F
0E
0+
b0 Y
03
0.
b1 s
b111100001000 r
1;
1-
#7780
0;
0-
#7800
b0 *
b0 N
b0 V
1;
1-
#7801
b1111 C
1F
1E
b1 /
b1 @
b111100001000 ,
b111100001000 =
13
1.
#7820
0;
0-
#7840
b1 *
b1 N
1+
b1 W
1;
1-
#7860
0;
0-
#7880
b0 C
0F
0E
0+
03
0.
b11 s
b10000 r
1;
1-
#7900
0;
0-
#7920
1;
1-
#7921
b0 *
b0 N
b1111 C
1F
1E
b11 /
b11 @
b10000 ,
b10000 =
13
1.
#7940
0;
0-
#7960
b11 *
b11 N
1M
1I
b11 T
1+
1;
1-
#7980
0;
0-
#8000
1c
b0 C
0F
1b
0E
b10010001 l
0+
03
0.
1;
1-
#8020
0;
0-
#8040
0c
0b
b10011 7
b10011 J
b10011 n
1o
b10010010 l
1;
1-
#8060
0;
0-
#8080
1c
1b
b10010011 l
0o
1;
1-
#8100
0;
0-
#8120
0c
0b
b10010 7
b10010 J
b10010 n
1o
b10010100 l
1;
1-
#8140
0;
0-
#8160
1c
1b
b10010101 l
0o
1;
1-
#8180
0;
0-
#8200
0c
0b
b10001 7
b10001 J
b10001 n
1o
b10010110 l
1;
1-
#8220
0;
0-
#8240
1c
1b
b10010111 l
0o
1;
1-
#8260
0;
0-
#8280
0c
0b
b10000 7
b10000 J
b10000 n
1o
b10011000 l
1;
1-
#8300
0;
0-
#8320
1c
1b
b10011001 l
0o
1;
1-
#8340
0;
0-
#8360
0c
0b
b1111 7
b1111 J
b1111 n
1o
b10011010 l
1;
1-
#8380
0;
0-
#8400
1c
1b
b10011011 l
0o
1;
1-
#8420
0;
0-
#8440
0c
0b
b1110 7
b1110 J
b1110 n
1o
b10011100 l
1;
1-
#8460
0;
0-
#8480
1c
1b
b10011101 l
0o
1;
1-
#8500
0;
0-
#8520
0c
0b
b1101 7
b1101 J
b1101 n
1o
b10011110 l
1;
1-
#8540
0;
0-
#8560
1c
1b
b10011111 l
0o
1;
1-
#8580
0;
0-
#8600
0c
0b
b1100 7
b1100 J
b1100 n
1o
b10100000 l
1;
1-
#8620
0;
0-
#8640
1c
1b
b10100001 l
0o
1;
1-
#8660
0;
0-
#8680
0c
0b
b1011 7
b1011 J
b1011 n
1o
b10100010 l
1;
1-
#8700
0;
0-
#8720
1c
1b
b10100011 l
0o
1;
1-
#8740
0;
0-
#8760
0c
0b
b1010 7
b1010 J
b1010 n
1o
b10100100 l
1;
1-
#8780
0;
0-
#8800
1c
1b
b10100101 l
0o
1;
1-
#8820
0;
0-
#8840
0c
0b
b1001 7
b1001 J
b1001 n
1o
b10100110 l
1;
1-
#8860
0;
0-
#8880
1c
1b
b10100111 l
0o
1;
1-
#8900
0;
0-
#8920
0c
0b
b1000 7
b1000 J
b1000 n
1o
b10101000 l
1;
1-
#8940
0;
0-
#8960
1c
1b
b10101001 l
0o
1;
1-
#8980
0;
0-
#9000
0c
0b
b111 7
b111 J
b111 n
1o
b10101010 l
1;
1-
#9020
0;
0-
#9040
1c
1b
b10101011 l
0o
1;
1-
#9060
0;
0-
#9080
0c
0b
b110 7
b110 J
b110 n
1o
b10101100 l
1;
1-
#9100
0;
0-
#9120
1c
1b
b10101101 l
0o
1;
1-
#9140
0;
0-
#9160
0c
0b
b101 7
b101 J
b101 n
1o
b10101110 l
1;
1-
#9180
0;
0-
#9200
1c
1b
b10101111 l
0o
1;
1-
#9220
0;
0-
#9240
0c
0b
b100 7
b100 J
b100 n
1o
b10110000 l
1;
1-
#9260
0;
0-
#9280
1c
1b
b10110001 l
0o
1;
1-
#9300
0;
0-
#9320
0c
0b
b11 7
b11 J
b11 n
1o
b10110010 l
1;
1-
#9340
0;
0-
#9360
1c
1b
b10110011 l
0o
1;
1-
#9380
0;
0-
#9400
0c
0b
b10 7
b10 J
b10 n
1o
b10110100 l
1;
1-
#9420
0;
0-
#9440
1c
1b
b10110101 l
0o
1;
1-
#9460
0;
0-
#9480
0c
0b
b1 7
b1 J
b1 n
1o
b10110110 l
1;
1-
#9500
0;
0-
#9520
1c
1b
b10110111 l
0o
1;
1-
#9540
0;
0-
#9560
0c
1:
1H
0b
b0 7
b0 J
b0 n
1o
b10111000 l
1;
1-
#9580
0;
0-
#9600
1c
b111 s
b111100000000 r
1b
0:
0H
1)
b1 6
b10111001 l
0o
b10100 7
b10100 J
b10100 n
b1 Y
1;
1-
#9620
0;
0-
#9640
0c
0b
b10011 7
b10011 J
b10011 n
1o
b10111010 l
1;
1-
#9641
b0 *
b0 N
b1111 C
1F
1E
b111 /
b111 @
b111100000000 ,
b111100000000 =
13
1.
#9660
0;
0-
#9680
b111 *
b111 N
1c
1b
b10111011 l
0o
1+
b111 V
1;
1-
#9700
0;
0-
#9720
0c
b0 C
0F
0b
0)
b0 6
0E
b10010 7
b10010 J
b10010 n
1o
b10111100 l
b0 Y
0+
03
0.
1;
1-
#9740
0;
0-
#9760
b0 *
b0 N
1c
1b
b10111101 l
0o
b0 V
1;
1-
#9780
0;
0-
#9800
0c
0b
b10001 7
b10001 J
b10001 n
1o
b10111110 l
1;
1-
#9820
0;
0-
#9840
1c
1b
b10111111 l
0o
1;
1-
#9860
0;
0-
#9880
0c
0b
b10000 7
b10000 J
b10000 n
1o
b11000000 l
1;
1-
#9900
0;
0-
#9920
1c
1b
b11000001 l
0o
1;
1-
#9940
0;
0-
#9960
0c
0b
b1111 7
b1111 J
b1111 n
1o
b11000010 l
1;
1-
#9980
0;
0-
#10000
1c
1b
b11000011 l
0o
1;
1-
#10020
0;
0-
#10040
0c
0b
b1110 7
b1110 J
b1110 n
1o
b11000100 l
1;
1-
#10060
0;
0-
#10080
1c
1b
b11000101 l
0o
1;
1-
#10100
0;
0-
